…
``` r
colnames(diamonds)
```

    ##  [1] "carat"   "cut"     "color"   "clarity" "depth"   "table"   "price"  
    ##  [8] "x"       "y"       "z"

``` r
rename(diamonds,carat_new=carat)
```

    ## # A tibble: 53,940 x 10
    ##    carat_new cut       color clarity depth table price     x     y     z
    ##        <dbl> <ord>     <ord> <ord>   <dbl> <dbl> <int> <dbl> <dbl> <dbl>
    ##  1      0.23 Ideal     E     SI2      61.5    55   326  3.95  3.98  2.43
    ##  2      0.21 Premium   E     SI1      59.8    61   326  3.89  3.84  2.31
    ##  3      0.23 Good      E     VS1      56.9    65   327  4.05  4.07  2.31
    ##  4      0.29 Premium   I     VS2      62.4    58   334  4.2   4.23  2.63
    ##  5      0.31 Good      J     SI2      63.3    58   335  4.34  4.35  2.75
    ##  6      0.24 Very Good J     VVS2     62.8    57   336  3.94  3.96  2.48
    ##  7      0.24 Very Good I     VVS1     62.3    57   336  3.95  3.98  2.47
    ##  8      0.26 Very Good H     SI1      61.9    55   337  4.07  4.11  2.53
    ##  9      0.22 Fair      E     VS2      65.1    61   337  3.87  3.78  2.49
    ## 10      0.23 Very Good H     VS1      59.4    61   338  4     4.05  2.39
    ## # ... with 53,930 more rows
…
``` r
glimpse(people)
```

    ## Rows: 3
    ## Columns: 2
    ## $ name <chr> "Rahul", "Hritik", "Pushker"
    ## $ age  <dbl> 24, 24, 23

``` r
# tibble in action
as_tibble(diamonds)
```

    ## # A tibble: 53,940 x 10
    ##    carat cut       color clarity depth table price     x     y     z
    ##    <dbl> <ord>     <ord> <ord>   <dbl> <dbl> <int> <dbl> <dbl> <dbl>
    ##  1  0.23 Ideal     E     SI2      61.5    55   326  3.95  3.98  2.43
    ##  2  0.21 Premium   E     SI1      59.8    61   326  3.89  3.84  2.31
    ##  3  0.23 Good      E     VS1      56.9    65   327  4.05  4.07  2.31
    ##  4  0.29 Premium   I     VS2      62.4    58   334  4.2   4.23  2.63
    ##  5  0.31 Good      J     SI2      63.3    58   335  4.34  4.35  2.75
    ##  6  0.24 Very Good J     VVS2     62.8    57   336  3.94  3.96  2.48
    ##  7  0.24 Very Good I     VVS1     62.3    57   336  3.95  3.98  2.47
    ##  8  0.26 Very Good H     SI1      61.9    55   337  4.07  4.11  2.53
    ##  9  0.22 Fair      E     VS2      65.1    61   337  3.87  3.78  2.49
    ## 10  0.23 Very Good H     VS1      59.4    61   338  4     4.05  2.39
    ## # ... with 53,930 more rows
…
``` r
penguins %>% 
  rename(island_name=island) %>% 
  rename_with(toupper)
```

    ## # A tibble: 344 x 8
    ##    SPECIES ISLAND_NAME BILL_LENGTH_MM BILL_DEPTH_MM FLIPPE~1 BODY_~2 SEX    YEAR
    ##    <fct>   <fct>                <dbl>         <dbl>    <int>   <int> <fct> <int>
    ##  1 Adelie  Torgersen             39.1          18.7      181    3750 male   2007
    ##  2 Adelie  Torgersen             39.5          17.4      186    3800 fema~  2007
    ##  3 Adelie  Torgersen             40.3          18        195    3250 fema~  2007
    ##  4 Adelie  Torgersen             NA            NA         NA      NA <NA>   2007
    ##  5 Adelie  Torgersen             36.7          19.3      193    3450 fema~  2007
    ##  6 Adelie  Torgersen             39.3          20.6      190    3650 male   2007
    ##  7 Adelie  Torgersen             38.9          17.8      181    3625 fema~  2007
    ##  8 Adelie  Torgersen             39.2          19.6      195    4675 male   2007
    ##  9 Adelie  Torgersen             34.1          18.1      193    3475 <NA>   2007
    ## 10 Adelie  Torgersen             42            20.2      190    4250 <NA>   2007
    ## # ... with 334 more rows, and abbreviated variable names 1: FLIPPER_LENGTH_MM,
    ## #   2: BODY_MASS_G

``` r
rename_with(penguins,tolower)
```

    ## # A tibble: 344 x 8
    ##    species island    bill_length_mm bill_depth_mm flipper_~1 body_~2 sex    year
    ##    <fct>   <fct>              <dbl>         <dbl>      <int>   <int> <fct> <int>
    ##  1 Adelie  Torgersen           39.1          18.7        181    3750 male   2007
    ##  2 Adelie  Torgersen           39.5          17.4        186    3800 fema~  2007
    ##  3 Adelie  Torgersen           40.3          18          195    3250 fema~  2007
    ##  4 Adelie  Torgersen           NA            NA           NA      NA <NA>   2007
    ##  5 Adelie  Torgersen           36.7          19.3        193    3450 fema~  2007
    ##  6 Adelie  Torgersen           39.3          20.6        190    3650 male   2007
    ##  7 Adelie  Torgersen           38.9          17.8        181    3625 fema~  2007
    ##  8 Adelie  Torgersen           39.2          19.6        195    4675 male   2007
    ##  9 Adelie  Torgersen           34.1          18.1        193    3475 <NA>   2007
    ## 10 Adelie  Torgersen           42            20.2        190    4250 <NA>   2007
    ## # ... with 334 more rows, and abbreviated variable names 1: flipper_length_mm,
    ## #   2: body_mass_g
…
``` r
print(a<2&b>2) # returns all element result
```

    ## [1]  TRUE FALSE FALSE FALSE

## data organiozation functions

``` r
penguins %>% 
  arrange(-bill_length_mm)
```

    ## # A tibble: 344 x 8
    ##    species   island bill_length_mm bill_depth_mm flipper_l~1 body_~2 sex    year
    ##    <fct>     <fct>           <dbl>         <dbl>       <int>   <int> <fct> <int>
    ##  1 Gentoo    Biscoe           59.6          17           230    6050 male   2007
    ##  2 Chinstrap Dream            58            17.8         181    3700 fema~  2007
    ##  3 Gentoo    Biscoe           55.9          17           228    5600 male   2009
    ##  4 Chinstrap Dream            55.8          19.8         207    4000 male   2009
    ##  5 Gentoo    Biscoe           55.1          16           230    5850 male   2009
    ##  6 Gentoo    Biscoe           54.3          15.7         231    5650 male   2008
    ##  7 Chinstrap Dream            54.2          20.8         201    4300 male   2008
    ##  8 Chinstrap Dream            53.5          19.9         205    4500 male   2008
    ##  9 Gentoo    Biscoe           53.4          15.8         219    5500 male   2009
    ## 10 Chinstrap Dream            52.8          20           205    4550 male   2008
    ## # ... with 334 more rows, and abbreviated variable names 1: flipper_length_mm,
    ## #   2: body_mass_g
…
``` r
penguins %>% 
       drop_na() %>% 
       filter(species=="Adelie")
```

    ## # A tibble: 146 x 8
    ##    species island    bill_length_mm bill_depth_mm flipper_~1 body_~2 sex    year
    ##    <fct>   <fct>              <dbl>         <dbl>      <int>   <int> <fct> <int>
    ##  1 Adelie  Torgersen           39.1          18.7        181    3750 male   2007
    ##  2 Adelie  Torgersen           39.5          17.4        186    3800 fema~  2007
    ##  3 Adelie  Torgersen           40.3          18          195    3250 fema~  2007
    ##  4 Adelie  Torgersen           36.7          19.3        193    3450 fema~  2007
    ##  5 Adelie  Torgersen           39.3          20.6        190    3650 male   2007
    ##  6 Adelie  Torgersen           38.9          17.8        181    3625 fema~  2007
    ##  7 Adelie  Torgersen           39.2          19.6        195    4675 male   2007
    ##  8 Adelie  Torgersen           41.1          17.6        182    3200 fema~  2007
    ##  9 Adelie  Torgersen           38.6          21.2        191    3800 male   2007
    ## 10 Adelie  Torgersen           34.6          21.1        198    4400 male   2007
    ## # ... with 136 more rows, and abbreviated variable names 1: flipper_length_mm,
    ## #   2: body_mass_g
…
